[gd_resource type="StyleBoxTexture" load_steps=2 format=3 uid="uid://dtm8ep2of6kcx"]

[ext_resource type="Texture2D" uid="uid://c5cilxv6dwlvt" path="res://resources/backgrounds/title-screen.png" id="1_3ly51"]

[resource]
texture = ExtResource("1_3ly51")
